…
min(map_data$start_lat)

## [1] 38.78263

max(map_data$start_lng)

## [1] -76.8446

min(map_data$start_lng)

## [1] -77.36842

d1 %>% group_by(trip) %>% count()

## # A tibble: 5,071 × 2
## # Groups:   trip [5,071]
##    trip                                                    n
##    <chr>                                               <int>
##  1 10th & E St NW to 10th & G St NW                        2
##  2 10th & E St NW to 14th & G St NW                        2
##  3 10th & E St NW to 14th & Q St NW                        2
##  4 10th & E St NW to 14th & V St NW                        2
##  5 10th & E St NW to 15th & East Capitol St NE             2
##  6 10th & E St NW to 1st & H St NW                         2
##  7 10th & E St NW to 1st & M St SE                         2
##  8 10th & E St NW to 20th & Columbia Rd NW                 2
##  9 10th & E St NW to 6th St & Indiana Ave NW               2
## 10 10th & E St NW to Convention Center / 7th & M St NW     2
## # … with 5,061 more rows
## # ℹ Use `print(n = ...)` to see more rows
…
Remove round trips

anti_join(d1, r)

## Joining, by = c("trip", "n", "lat")

## # A tibble: 10,598 × 6
## # Groups:   trip [5,071]
##    trip                                            n loc         lat loc2   long
##    <chr>                                       <int> <chr>     <dbl> <chr> <dbl>
##  1 10th & E St NW to 10th & G St NW                1 start_lat  38.9 star… -77.0
##  2 10th & E St NW to 10th & G St NW                1 end_lat    38.9 end_… -77.0
##  3 10th & E St NW to 14th & G St NW                1 start_lat  38.9 star… -77.0
##  4 10th & E St NW to 14th & G St NW                1 end_lat    38.9 end_… -77.0
##  5 10th & E St NW to 14th & Q St NW                1 start_lat  38.9 star… -77.0
##  6 10th & E St NW to 14th & Q St NW                1 end_lat    38.9 end_… -77.0
##  7 10th & E St NW to 14th & V St NW                1 start_lat  38.9 star… -77.0
##  8 10th & E St NW to 14th & V St NW                1 end_lat    38.9 end_… -77.0
##  9 10th & E St NW to 15th & East Capitol St NE     1 start_lat  38.9 star… -77.0
## 10 10th & E St NW to 15th & East Capitol St NE     1 end_lat    38.9 end_… -77.0
## # … with 10,588 more rows
## # ℹ Use `print(n = ...)` to see more rows
…
